fpga/radiant_project/lab01/lab01_tb.vcd
$date
	Tue Sep  3 15:45:48 2024
$end
$version
	Questa Lattice OEM Edition 2024.2
$end
$timescale
	1ps
$end

$scope module lab01_tb $end
$var reg 1 ! clk $end
$var reg 1 " reset $end
$var reg 4 # switch [3:0] $end
$var reg 3 $ led [2:0] $end
$var reg 3 % led_expected [2:0] $end
$var reg 7 & seg [6:0] $end
$var reg 7 ' seg_expected [6:0] $end
$var reg 32 ( vectornum [31:0] $end
$var reg 32 ) errors [31:0] $end

$scope module dut $end
$var wire 1 * reset $end
$var wire 1 + s [3] $end
$var wire 1 , s [2] $end
$var wire 1 - s [1] $end
$var wire 1 . s [0] $end
$var reg 3 / led [2:0] $end
$var reg 7 0 seg [6:0] $end
$var reg 1 1 int_osc $end

$scope module hf_osc $end
$var wire 1 2 CLKHFPU $end
$var wire 1 3 CLKHFEN $end
$var wire 1 4 CLKHF $end
$upscope $end

$scope module lab_runner $end
$var wire 1 5 clk $end
$var wire 1 * reset $end
$var wire 1 + s [3] $end
$var wire 1 , s [2] $end
$var wire 1 - s [1] $end
$var wire 1 . s [0] $end
$var reg 3 6 led [2:0] $end
$var reg 7 7 seg [6:0] $end
$var reg 25 8 counter [24:0] $end

$scope module one_seg $end
$var wire 1 + s [3] $end
$var wire 1 , s [2] $end
$var wire 1 - s [1] $end
$var wire 1 . s [0] $end
$var reg 7 9 seg [6:0] $end
$upscope $end

$scope module one_cont $end
$var wire 1 : counter [24] $end
$var wire 1 ; counter [23] $end
$var wire 1 < counter [22] $end
$var wire 1 = counter [21] $end
$var wire 1 > counter [20] $end
$var wire 1 ? counter [19] $end
$var wire 1 @ counter [18] $end
$var wire 1 A counter [17] $end
$var wire 1 B counter [16] $end
$var wire 1 C counter [15] $end
$var wire 1 D counter [14] $end
$var wire 1 E counter [13] $end
$var wire 1 F counter [12] $end
$var wire 1 G counter [11] $end
$var wire 1 H counter [10] $end
$var wire 1 I counter [9] $end
$var wire 1 J counter [8] $end
$var wire 1 K counter [7] $end
$var wire 1 L counter [6] $end
$var wire 1 M counter [5] $end
$var wire 1 N counter [4] $end
$var wire 1 O counter [3] $end
$var wire 1 P counter [2] $end
$var wire 1 Q counter [1] $end
$var wire 1 R counter [0] $end
$var wire 1 + s [3] $end
$var wire 1 , s [2] $end
$var wire 1 - s [1] $end
$var wire 1 . s [0] $end
$var reg 3 S led [2:0] $end
$upscope $end
$upscope $end
$upscope $end
$upscope $end
$enddefinitions $end
#0
$dumpvars
1!
1"
bx #
bx $
bx %
bx &
bx '
b0 (
b0 )
bx /
bx 0
01
bx 6
bx 7
bx 8
bx 9
bx S
x.
x-
x,
x+
1*
05
13
12
04
xR
xQ
xP
xO
xN
xM
xL
xK
xJ
xI
xH
xG
xF
xE
xD
xC
xB
xA
x@
x?
x>
x=
x<
x;
x:
$end
#1000
b1000000 '
b0 %
b0 #
0.
0-
0,
0+
bx0x S
bx00 S
bx00 6
bx00 /
bx00 $
b1000000 9
b1000000 7
b1000000 0
b1000000 &
#5000
0!
#10000
1!
#10416
14
11
15
#15000
0!
#20000
1!
#20832
04
01
05
#25000
0!
#27000
0"
0*
#30000
1!
#31248
14
11
15
b0 8
0R
0Q
0P
0O
0N
0M
0L
0K
0J
0I
0H
0G
0F
0E
0D
0C
0B
0A
0@
0?
0>
0=
0<
0;
0:
b0 S
b0 6
b0 /
b0 $
#35000
0!
b1 (
#40000
1!
#41000
b1111001 '
b1 %
b1 #
1.
b1 S
b1 6
b1 /
b1 $
b1111001 9
b1111001 7
b1111001 0
b1111001 &
#41664
04
01
05
#45000
0!
b10 (
#50000
1!
#51000
b100100 '
b10 #
0.
1-
b100100 9
b100100 7
b100100 0
b100100 &
#52080
14
11
15
#55000
0!
b11 (
#60000
1!
#61000
b110000 '
b0 %
b11 #
1.
b0 S
b0 6
b0 /
b0 $
b110000 9
b110000 7
b110000 0
b110000 &
#62496
04
01
05
#65000
0!
b100 (
#70000
1!
#71000
b11001 '
b100 #
0.
0-
1,
b11001 9
b11001 7
b11001 0
b11001 &
#72912
14
11
15
#75000
0!
b101 (
#80000
1!
#81000
b10010 '
b1 %
b101 #
1.
b1 S
b1 6
b1 /
b1 $
b10010 9
b10010 7
b10010 0
b10010 &
#83328
04
01
05
#85000
0!
b110 (
#90000
1!
#91000
b10 '
b110 #
0.
1-
b10 9
b10 7
b10 0
b10 &
#93744
14
11
15
#95000
0!
b111 (
#100000
1!
#101000
b1111000 '
b0 %
b111 #
1.
b0 S
b0 6
b0 /
b0 $
b1111000 9
b1111000 7
b1111000 0
b1111000 &
#104160
04
01
05
#105000
0!
b1000 (
#110000
1!
#111000
b0 '
b1000 #
0.
0-
0,
1+
b0 9
b0 7
b0 0
b0 &
#114576
14
11
15
#115000
0!
b1001 (
#120000
1!
#121000
b10000 '
b1 %
b1001 #
1.
b1 S
b1 6
b1 /
b1 $
b10000 9
b10000 7
b10000 0
b10000 &
#124992
04
01
05
#125000
0!
b1010 (
#130000
1!
#131000
b1000 '
b1010 #
0.
1-
b1000 9
b1000 7
b1000 0
b1000 &
#135000
0!
b1011 (
#135408
14
11
15
#140000
1!
#141000
b11 '
b0 %
b1011 #
1.
b0 S
b0 6
b0 /
b0 $
b11 9
b11 7
b11 0
b11 &
#145000
0!
b1100 (
#145824
04
01
05
#150000
1!
#151000
b1000110 '
b10 %
b1100 #
0.
0-
1,
b10 S
b10 6
b10 /
b10 $
b1000110 9
b1000110 7
b1000110 0
b1000110 &
#155000
0!
b1101 (
#156240
14
11
15
#160000
1!
#161000
b100001 '
b11 %
b1101 #
1.
b11 S
b11 6
b11 /
b11 $
b100001 9
b100001 7
b100001 0
b100001 &
#165000
0!
b1110 (
#166656
04
01
05
#170000
1!
#171000
b110 '
b1110 #
0.
1-
b110 9
b110 7
b110 0
b110 &
#175000
0!
b1111 (
#177072
14
11
15
#180000
1!
#181000
b1110 '
b10 %
b1111 #
1.
b10 S
b10 6
b10 /
b10 $
b1110 9
b1110 7
b1110 0
b1110 &
#185000
0!
b10000 (
#187488
04
01
05
#190000
1!
#191000
bx '
bx %
bx #
x.
x-
x,
x+
b0x0 S
b0xx S
b0xx 6
b0xx /
b0xx $
bx 9
bx 7
bx 0
bx &
#195000
0!
b10001 (
#197904
14
11
15
#200000
1!
#205000
0!
b10010 (
#208320
04
01
05
#210000
1!
#215000
0!
b10011 (
#218736
14
11
15
#220000
1!
#225000
0!
b10100 (
#229152
04
01
05
#230000
1!
#235000
0!
b10101 (
#239568
14
11
15
#240000
1!
#245000
0!
b10110 (
#249984
04
01
05
#250000
1!
#255000
0!
b10111 (
#260000
1!
#260400
14
11
15
#265000
0!
b11000 (
#270000
1!
#270816
04
01
05
#275000
0!
b11001 (
#280000
1!
#281232
14
11
15
#285000
0!
b11010 (
#290000
1!
#291648
04
01
05
#295000
0!
b11011 (
#300000
1!
#302064
14
11
15
#305000
0!
b11100 (
#310000
1!
#312480
04
01
05
#315000
0!
b11101 (
#320000
1!
#322896
14
11
15
#325000
0!
b11110 (
#330000
1!
#333312
04
01
05
#335000
0!
b11111 (
#340000
1!
#343728
14
11
15
#345000
0!
b100000 (
#350000
1!
#354144
04
01
05
#355000
0!
b100001 (
#360000
1!
#364560
14
11
15
#365000
0!
b100010 (
#370000
1!
#374976
04
01
05
#375000
0!
b100011 (
#380000
1!
#385000
0!
b100100 (
#385392
14
11
15
#390000
1!
#395000
0!
b100101 (
#395808
04
01
05
#400000
1!
#405000
0!
b100110 (
#406224
14
11
15
#410000
1!
#415000
0!
b100111 (
#416640
04
01
05
#420000
1!
#425000
0!
b101000 (
#427056
14
11
15
#430000
1!
#435000
0!
b101001 (
#437472
04
01
05
#440000
1!
#445000
0!
b101010 (
#447888
14
11
15
#450000
1!
#455000
0!
b101011 (
#458304
04
01
05
#460000
1!
#465000
0!
b101100 (
#468720
14
11
15
#470000
1!
#475000
0!
b101101 (
#479136
04
01
05
#480000
1!
#485000
0!
b101110 (
#489552
14
11
15
#490000
1!
#495000
0!
b101111 (
#499968
04
01
05
#500000
1!
#505000
0!
b110000 (
#510000
1!
#510384
14
11
15
#515000
0!
b110001 (
#520000
1!
#520800
04
01
05
#525000
0!
b110010 (
#530000
1!
#531216
14
11
15
#535000
0!
b110011 (
#540000
1!
#541632
04
01
05
#545000
0!
b110100 (
#550000
1!
#552048
14
11
15
#555000
0!
b110101 (
#560000
1!
#562464
04
01
05
#565000
0!
b110110 (
#570000
1!
#572880
14
11
15
#575000
0!
b110111 (
#580000
1!
#583296
04
01
05
#585000
0!
b111000 (
#590000
1!
#593712
14
11
15
#595000
0!
b111001 (
#600000
1!
#604128
04
01
05
#605000
0!
b111010 (
#610000
1!
#614544
14
11
15
#615000
0!
b111011 (
#620000
1!
#624960
04
01
05
#625000
0!
b111100 (
#630000
1!
#635000
0!
b111101 (
#635376
14
11
15
#640000
1!
#645000
0!
b111110 (
#645792
04
01
05
#650000
1!
#655000
0!
b111111 (
#656208
14
11
15
#660000
1!
#665000
0!
b1000000 (
#666624
04
01
05
#670000
1!
#675000
0!
b1000001 (
#677040
14
11
15
#680000
1!
#685000
0!
b1000010 (
#687456
04
01
05
#690000
1!
#695000
0!
b1000011 (
#697872
14
11
15
#700000
1!
#705000
0!
b1000100 (
#708288
04
01
05
#710000
1!
#715000
0!
b1000101 (
#718704
14
11
15
#720000
1!
#725000
0!
b1000110 (
#729120
04
01
05
#730000
1!
#735000
0!
b1000111 (
#739536
14
11
15
#740000
1!
#745000
0!
b1001000 (
#749952
04
01
05
#750000
1!
#755000
0!
b1001001 (
#760000
1!
#760368
14
11
15
#765000
0!
b1001010 (
#770000
1!
#770784
04
01
05
#775000
0!
b1001011 (
#780000
1!
#781200
14
11
15
#785000
0!
b1001100 (
#790000
1!
#791616
04
01
05
#795000
0!
b1001101 (
#800000
1!
#802032
14
11
15
#805000
0!
b1001110 (
#810000
1!
#812448
04
01
05
#815000
0!
b1001111 (
#820000
1!
#822864
14
11
15
#825000
0!
b1010000 (
#830000
1!
#833280
04
01
05
#835000
0!
b1010001 (
#840000
1!
#843696
14
11
15
#845000
0!
b1010010 (
#850000
1!
#854112
04
01
05
#855000
0!
b1010011 (
#860000
1!
#864528
14
11
15
#865000
0!
b1010100 (
#870000
1!
#874944
04
01
05
#875000
0!
b1010101 (
#880000
1!
#885000
0!
b1010110 (
#885360
14
11
15
#890000
1!
#895000
0!
b1010111 (
#895776
04
01
05
#900000
1!
#905000
0!
b1011000 (
#906192
14
11
15
#910000
1!
#915000
0!
b1011001 (
#916608
04
01
05
#920000
1!
#925000
0!
b1011010 (
#927024
14
11
15
#930000
1!
#935000
0!
b1011011 (
#937440
04
01
05
#940000
1!
#945000
0!
b1011100 (
#947856
14
11
15
#950000
1!
#955000
0!
b1011101 (
#958272
04
01
05
#960000
1!
#965000
0!
b1011110 (
#968688
14
11
15
#970000
1!
#975000
0!
b1011111 (
#979104
04
01
05
#980000
1!
#985000
0!
b1100000 (
#989520
14
11
15
#990000
1!
#995000
0!
b1100001 (
#999936
04
01
05
#1000000
1!
#1005000
0!
b1100010 (
#1010000
1!
#1010352
14
11
15
#1015000
0!
b1100011 (
#1020000
1!
#1020768
04
01
05
#1025000
0!
b1100100 (
#1030000
1!
#1031184
14
11
15
#1035000
0!
b1100101 (
#1040000
1!
#1041600
04
01
05
#1045000
0!
b1100110 (
#1050000
1!
#1052016
14
11
15
#1055000
0!
b1100111 (
#1060000
1!
#1062432
04
01
05
#1065000
0!
b1101000 (
#1070000
1!
#1072848
14
11
15
#1075000
0!
b1101001 (
#1080000
1!
#1083264
04
01
05
#1085000
0!
b1101010 (
#1090000
1!
#1093680
14
11
15
#1095000
0!
b1101011 (
#1100000
1!
#1104096
04
01
05
#1105000
0!
b1101100 (
#1110000
1!
#1114512
14
11
15
#1115000
0!
b1101101 (
#1120000
1!
#1124928
04
01
05
#1125000
0!
b1101110 (
#1130000
1!
#1135000
0!
b1101111 (
#1135344
14
11
15
#1140000
1!
#1145000
0!
b1110000 (
#1145760
04
01
05
#1150000
1!
#1155000
0!
b1110001 (
#1156176
14
11
15
#1160000
1!
#1165000
0!
b1110010 (
#1166592
04
01
05
#1170000
1!
#1175000
0!
b1110011 (
#1177008
14
11
15
#1180000
1!
#1185000
0!
b1110100 (
#1187424
04
01
05
#1190000
1!
#1195000
0!
b1110101 (
#1197840
14
11
15
#1200000
1!
#1205000
0!
b1110110 (
#1208256
04
01
05
#1210000
1!
#1215000
0!
b1110111 (
#1218672
14
11
15
#1220000
1!
#1225000
0!
b1111000 (
#1229088
04
01
05
#1230000
1!
#1235000
0!
b1111001 (
#1239504
14
11
15
#1240000
1!
#1245000
0!
b1111010 (
#1249920
04
01
05
#1250000
1!
#1255000
0!
b1111011 (
#1260000
1!
#1260336
14
11
15
#1265000
0!
b1111100 (
#1270000
1!
#1270752
04
01
05
#1275000
0!
b1111101 (
#1280000
1!
#1281168
14
11
15
#1285000
0!
b1111110 (
#1290000
1!
#1291584
04
01
05
#1295000
0!
b1111111 (
#1300000
1!
#1302000
14
11
15
#1305000
0!
b10000000 (
#1310000
1!
#1312416
04
01
05
#1315000
0!
b10000001 (
#1320000
1!
#1322832
14
11
15
#1325000
0!
b10000010 (
#1330000
1!
#1333248
04
01
05
#1335000
0!
b10000011 (
#1340000
1!
#1343664
14
11
15
#1345000
0!
b10000100 (
#1350000
1!
#1354080
04
01
05
#1355000
0!
b10000101 (
#1360000
1!
#1364496
14
11
15
#1365000
0!
b10000110 (
#1370000
1!
#1374912
04
01
05
#1375000
0!
b10000111 (
#1380000
1!
#1385000
0!
b10001000 (
#1385328
14
11
15
#1390000
1!
#1395000
0!
b10001001 (
#1395744
04
01
05
#1400000
1!
#1405000
0!
b10001010 (
#1406160
14
11
15
#1410000
1!
#1415000
0!
b10001011 (
#1416576
04
01
05
#1420000
1!
#1425000
0!
b10001100 (
#1426992
14
11
15
#1430000
1!
#1435000
0!
b10001101 (
#1437408
04
01
05
#1440000
1!
#1445000
0!
b10001110 (
#1447824
14
11
15
#1450000
1!
#1455000
0!
b10001111 (
#1458240
04
01
05
#1460000
1!
#1465000
0!
b10010000 (
#1468656
14
11
15
#1470000
1!
#1475000
0!
b10010001 (
#1479072
04
01
05
#1480000
1!
#1485000
0!
b10010010 (
#1489488
14
11
15
#1490000
1!
#1495000
0!
b10010011 (
#1499904
04
01
05
#1500000
1!
#1505000
0!
b10010100 (
#1510000
1!
#1510320
14
11
15
#1515000
0!
b10010101 (
#1520000
1!
#1520736
04
01
05
#1525000
0!
b10010110 (
#1530000
1!
#1531152
14
11
15
#1535000
0!
b10010111 (
#1540000
1!
#1541568
04
01
05
#1545000
0!
b10011000 (
#1550000
1!
#1551984
14
11
15
#1555000
0!
b10011001 (
#1560000
1!
#1562400
04
01
05
#1565000
0!
b10011010 (
#1570000
1!
#1572816
14
11
15
#1575000
0!
b10011011 (
#1580000
1!
#1583232
04
01
05
#1585000
0!
b10011100 (
#1590000
1!
#1593648
14
11
15
#1595000
0!
b10011101 (
#1600000
1!
#1604064
04
01
05
#1605000
0!
b10011110 (
#1610000
1!
#1614480
14
11
15
#1615000
0!
b10011111 (
#1620000
1!
#1624896
04
01
05
#1625000
0!
b10100000 (
#1630000
1!
#1635000
0!
b10100001 (
#1635312
14
11
15
#1640000
1!
#1645000
0!
b10100010 (
#1645728
04
01
05
#1650000
1!
#1655000
0!
b10100011 (
#1656144
14
11
15
#1660000
1!
#1665000
0!
b10100100 (
#1666560
04
01
05
#1670000
1!
#1675000
0!
b10100101 (
#1676976
14
11
15
#1680000
1!
#1685000
0!
b10100110 (
#1687392
04
01
05
#1690000
1!
#1695000
0!
b10100111 (
#1697808
14
11
15
#1700000
1!
#1705000
0!
b10101000 (
#1708224
04
01
05
#1710000
1!
#1715000
0!
b10101001 (
#1718640
14
11
15
#1720000
1!
#1725000
0!
b10101010 (
#1729056
04
01
05
#1730000
1!
#1735000
0!
b10101011 (
#1739472
14
11
15
#1740000
1!
#1745000
0!
b10101100 (
#1749888
04
01
05
#1750000
1!
#1755000
0!
b10101101 (
#1760000
1!
#1760304
14
11
15
#1765000
0!
b10101110 (
#1770000
1!
#1770720
04
01
05
#1775000
0!
b10101111 (
#1780000
1!
#1781136
14
11
15
#1785000
0!
b10110000 (
#1790000
1!
#1791552
04
01
05
#1795000
0!
b10110001 (
#1800000
1!
#1801968
14
11
15
#1805000
0!
b10110010 (
#1810000
1!
#1812384
04
01
05
#1815000
0!
b10110011 (
#1820000
1!
#1822800
14
11
15
#1825000
0!
b10110100 (
#1830000
1!
#1833216
04
01
05
#1835000
0!
b10110101 (
#1840000
1!
#1843632
14
11
15
#1845000
0!
b10110110 (
#1850000
1!
#1854048
04
01
05
#1855000
0!
b10110111 (
#1860000
1!
#1864464
14
11
15
#1865000
0!
b10111000 (
#1870000
1!
#1874880
04
01
05
#1875000
0!
b10111001 (
#1880000
1!
#1885000
0!
b10111010 (
#1885296
14
11
15
#1890000
1!
#1895000
0!
b10111011 (
#1895712
04
01
05
#1900000
1!
#1905000
0!
b10111100 (
#1906128
14
11
15
#1910000
1!
#1915000
0!
b10111101 (
#1916544
04
01
05
#1920000
1!
#1925000
0!
b10111110 (
#1926960
14
11
15
#1930000
1!
#1935000
0!
b10111111 (
#1937376
04
01
05
#1940000
1!
#1945000
0!
b11000000 (
#1947792
14
11
15
#1950000
1!
#1955000
0!
b11000001 (
#1958208
04
01
05
#1960000
1!
#1965000
0!
b11000010 (
#1968624
14
11
15
#1970000
1!
#1975000
0!
b11000011 (
#1979040
04
01
05
#1980000
1!
#1985000
0!
b11000100 (
#1989456
14
11
15
#1990000
1!
#1995000
0!
b11000101 (
#1999872
04
01
05
#2000000
1!
#2005000
0!
b11000110 (
#2010000
1!
#2010288
14
11
15
#2015000
0!
b11000111 (
#2020000
1!
#2020704
04
01
05
#2025000
0!
b11001000 (
#2030000
1!
#2031120
14
11
15
#2035000
0!
b11001001 (
#2040000
1!
#2041536
04
01
05
#2045000
0!
b11001010 (
#2050000
1!
#2051952
14
11
15
#2055000
0!
b11001011 (
#2060000
1!
#2062368
04
01
05
#2065000
0!
b11001100 (
#2070000
1!
#2072784
14
11
15
#2075000
0!
b11001101 (
#2080000
1!
#2083200
04
01
05
#2085000
0!
b11001110 (
#2090000
1!
#2093616
14
11
15
#2095000
0!
b11001111 (
#2100000
1!
#2104032
04
01
05
#2105000
0!
b11010000 (
#2110000
1!
#2114448
14
11
15
#2115000
0!
b11010001 (
#2120000
1!
#2124864
04
01
05
#2125000
0!
b11010010 (
#2130000
1!
#2135000
0!
b11010011 (
#2135280
14
11
15
#2140000
1!
#2145000
0!
b11010100 (
#2145696
04
01
05
#2150000
1!
#2155000
0!
b11010101 (
#2156112
14
11
15
#2160000
1!
#2165000
0!
b11010110 (
#2166528
04
01
05
#2170000
1!
#2175000
0!
b11010111 (
#2176944
14
11
15
#2180000
1!
#2185000
0!
b11011000 (
#2187360
04
01
05
#2190000
1!
#2195000
0!
b11011001 (
#2197776
14
11
15
#2200000
1!
#2205000
0!
b11011010 (
#2208192
04
01
05
#2210000
1!
#2215000
0!
b11011011 (
#2218608
14
11
15
#2220000
1!
#2225000
0!
b11011100 (
#2229024
04
01
05
#2230000
1!
#2235000
0!
b11011101 (
#2239440
14
11
15
#2240000
1!
#2245000
0!
b11011110 (
#2249856
04
01
05
#2250000
1!
#2255000
0!
b11011111 (
#2260000
1!
#2260272
14
11
15
#2265000
0!
b11100000 (
#2270000
1!
#2270688
04
01
05
#2275000
0!
b11100001 (
#2280000
1!
#2281104
14
11
15
#2285000
0!
b11100010 (
#2290000
1!
#2291520
04
01
05
#2295000
0!
b11100011 (
#2300000
1!
#2301936
14
11
15
#2305000
0!
b11100100 (
#2310000
1!
#2312352
04
01
05
#2315000
0!
b11100101 (
#2320000
1!
#2322768
14
11
15
#2325000
0!
b11100110 (
#2330000
1!
#2333184
04
01
05
#2335000
0!
b11100111 (
#2340000
1!
#2343600
14
11
15
#2345000
0!
b11101000 (
#2350000
1!
#2354016
04
01
05
#2355000
0!
b11101001 (
#2360000
1!
#2364432
14
11
15
#2365000
0!
b11101010 (
#2370000
1!
#2374848
04
01
05
#2375000
0!
b11101011 (
#2380000
1!
#2385000
0!
b11101100 (
#2385264
14
11
15
#2390000
1!
#2395000
0!
b11101101 (
#2395680
04
01
05
#2400000
1!
#2405000
0!
b11101110 (
#2406096
14
11
15
#2410000
1!
#2415000
0!
b11101111 (
#2416512
04
01
05
#2420000
1!
#2425000
0!
b11110000 (
#2426928
14
11
15
#2430000
1!
#2435000
0!
b11110001 (
#2437344
04
01
05
#2440000
1!
#2445000
0!
b11110010 (
#2447760
14
11
15
#2450000
1!
#2455000
0!
b11110011 (
#2458176
04
01
05
#2460000
1!
#2465000
0!
b11110100 (
#2468592
14
11
15
#2470000
1!
#2475000
0!
b11110101 (
#2479008
04
01
05
#2480000
1!
#2485000
0!
b11110110 (
#2489424
14
11
15
#2490000
1!
#2495000
0!
b11110111 (
#2499840
04
01
05
#2500000
1!
#2505000
0!
b11111000 (
#2510000
1!
#2510256
14
11
15
#2515000
0!
b11111001 (
#2520000
1!
#2520672
04
01
05
#2525000
0!
b11111010 (
#2530000
1!
#2531088
14
11
15
#2535000
0!
b11111011 (
#2540000
1!
#2541504
04
01
05
#2545000
0!
b11111100 (
#2550000
1!
#2551920
14
11
15
#2555000
0!
b11111101 (
#2560000
1!
#2562336
04
01
05
#2565000
0!
b11111110 (
#2570000
1!
#2572752
14
11
15
#2575000
0!
b11111111 (
#2580000
1!
#2583168
04
01
05
#2585000
0!
b100000000 (
#2590000
1!
#2593584
14
11
15
#2595000
0!
b100000001 (
#2600000
1!
#2604000
04
01
05
#2605000
0!
b100000010 (
#2610000
1!
#2614416
14
11
15
#2615000
0!
b100000011 (
#2620000
1!
#2624832
04
01
05
#2625000
0!
b100000100 (
#2630000
1!
#2635000
0!
b100000101 (
#2635248
14
11
15
#2640000
1!
#2645000
0!
b100000110 (
#2645664
04
01
05
#2650000
1!
#2655000
0!
b100000111 (
#2656080
14
11
15
#2660000
1!
#2665000
0!
b100001000 (
#2666496
04
01
05
#2670000
1!
#2675000
0!
b100001001 (
#2676912
14
11
15
#2680000
1!
#2685000
0!
b100001010 (
#2687328
04
01
05
#2690000
1!
#2695000
0!
b100001011 (
#2697744
14
11
15
#2700000
1!
#2705000
0!
b100001100 (
#2708160
04
01
05
#2710000
1!
#2715000
0!
b100001101 (
#2718576
14
11
15
#2720000
1!
#2725000
0!
b100001110 (
#2728992
04
01
05
#2730000
1!
#2735000
0!
b100001111 (
#2739408
14
11
15
#2740000
1!
#2745000
0!
b100010000 (
#2749824
04
01
05
#2750000
1!
#2755000
0!
b100010001 (
#2760000
1!
#2760240
14
11
15
#2765000
0!
b100010010 (
#2770000
1!
#2770656
04
01
05
#2775000
0!
b100010011 (
#2780000
1!
#2781072
14
11
15
#2785000
0!
b100010100 (
#2790000
1!
#2791488
04
01
05
#2795000
0!
b100010101 (
#2800000
1!
#2801904
14
11
15
#2805000
0!
b100010110 (
#2810000
1!
#2812320
04
01
05
#2815000
0!
b100010111 (
#2820000
1!
#2822736
14
11
15
#2825000
0!
b100011000 (
#2830000
1!
#2833152
04
01
05
#2835000
0!
b100011001 (
#2840000
1!
#2843568
14
11
15
#2845000
0!
b100011010 (
#2850000
1!
#2853984
04
01
05
#2855000
0!
b100011011 (
#2860000
1!
#2864400
14
11
15
#2865000
0!
b100011100 (
#2870000
1!
#2874816
04
01
05
#2875000
0!
b100011101 (
#2880000
1!
#2885000
0!
b100011110 (
#2885232
14
11
15
#2890000
1!
#2895000
0!
b100011111 (
#2895648
04
01
05
#2900000
1!
#2905000
0!
b100100000 (
#2906064
14
11
15
#2910000
1!
#2915000
0!
b100100001 (
#2916480
04
01
05
#2920000
1!
#2925000
0!
b100100010 (
#2926896
14
11
15
#2930000
1!
#2935000
0!
b100100011 (
#2937312
04
01
05
#2940000
1!
#2945000
0!
b100100100 (
#2947728
14
11
15
#2950000
1!
#2955000
0!
b100100101 (
#2958144
04
01
05
#2960000
1!
#2965000
0!
b100100110 (
#2968560
14
11
15
#2970000
1!
#2975000
0!
b100100111 (
#2978976
04
01
05
#2980000
1!
#2985000
0!
b100101000 (
#2989392
14
11
15
#2990000
1!
#2995000
0!
b100101001 (
#2999808
04
01
05
#3000000
1!
#3005000
0!
b100101010 (
#3010000
1!
#3010224
14
11
15
#3015000
0!
b100101011 (
#3020000
1!
#3020640
04
01
05
#3025000
0!
b100101100 (
#3030000
1!
#3031056
14
11
15
#3035000
0!
b100101101 (
#3040000
1!
#3041472
04
01
05
#3045000
0!
b100101110 (
#3050000
1!
#3051888
14
11
15
#3055000
0!
b100101111 (
#3060000
1!
#3062304
04
01
05
#3065000
0!
b100110000 (
#3070000
1!
#3072720
14
11
15
#3075000
0!
b100110001 (
#3080000
1!
#3083136
04
01
05
#3085000
0!
b100110010 (
#3090000
1!
#3093552
14
11
15
#3095000
0!
b100110011 (
#3100000
1!
#3103968
04
01
05
#3105000
0!
b100110100 (
#3110000
1!
#3114384
14
11
15
#3115000
0!
b100110101 (
#3120000
1!
#3124800
04
01
05
#3125000
0!
b100110110 (
#3130000
1!
#3135000
0!
b100110111 (
#3135216
14
11
15
#3140000
1!
#3145000
0!
b100111000 (
#3145632
04
01
05
#3150000
1!
#3155000
0!
b100111001 (
#3156048
14
11
15
#3160000
1!
#3165000
0!
b100111010 (
#3166464
04
01
05
#3170000
1!
#3175000
0!
b100111011 (
#3176880
14
11
15
#3180000
1!
#3185000
0!
b100111100 (
#3187296
04
01
05
#3190000
1!
#3195000
0!
b100111101 (
#3197712
14
11
15
#3200000
1!
#3205000
0!
b100111110 (
#3208128
04
01
05
#3210000
1!
#3215000
0!
b100111111 (
#3218544
14
11
15
#3220000
1!
#3225000
0!
b101000000 (
#3228960
04
01
05
#3230000
1!
#3235000
0!
b101000001 (
#3239376
14
11
15
#3240000
1!
#3245000
0!
b101000010 (
#3249792
04
01
05
#3250000
1!
#3255000
0!
b101000011 (
#3260000
1!
#3260208
14
11
15
#3265000
0!
b101000100 (
#3270000
1!
#3270624
04
01
05
#3275000
0!
b101000101 (
#3280000
1!
#3281040
14
11
15
#3285000
0!
b101000110 (
#3290000
1!
#3291456
04
01
05
#3295000
0!
b101000111 (
#3300000
1!
#3301872
14
11
15
#3305000
0!
b101001000 (
#3310000
1!
#3312288
04
01
05
#3315000
0!
b101001001 (
#3320000
1!
#3322704
14
11
15
#3325000
0!
b101001010 (
#3330000
1!
#3333120
04
01
05
#3335000
0!
b101001011 (
#3340000
1!
#3343536
14
11
15
#3345000
0!
b101001100 (
#3350000
1!
#3353952
04
01
05
#3355000
0!
b101001101 (
#3360000
1!
#3364368
14
11
15
#3365000
0!
b101001110 (
#3370000
1!
#3374784
04
01
05
#3375000
0!
b101001111 (
#3380000
1!
#3385000
0!
b101010000 (
#3385200
14
11
15
#3390000
1!
#3395000
0!
b101010001 (
#3395616
04
01
05
#3400000
1!
#3405000
0!
b101010010 (
#3406032
14
11
15
#3410000
1!
#3415000
0!
b101010011 (
#3416448
04
01
05
#3420000
1!
#3425000
0!
b101010100 (
#3426864
14
11
15
#3430000
1!
#3435000
0!
b101010101 (
#3437280
04
01
05
#3440000
1!
#3445000
0!
b101010110 (
#3447696
14
11
15
#3450000
1!
#3455000
0!
b101010111 (
#3458112
04
01
05
#3460000
1!
#3465000
0!
b101011000 (
#3468528
14
11
15
#3470000
1!
#3475000
0!
b101011001 (
#3478944
04
01
05
#3480000
1!
#3485000
0!
b101011010 (
#3489360
14
11
15
#3490000
1!
#3495000
0!
b101011011 (
#3499776
04
01
05
#3500000
1!
#3505000
0!
b101011100 (
#3510000
1!
#3510192
14
11
15
#3515000
0!
b101011101 (
#3520000
1!
#3520608
04
01
05
#3525000
0!
b101011110 (
#3530000
1!
#3531024
14
11
15
#3535000
0!
b101011111 (
#3540000
1!
#3541440
04
01
05
#3545000
0!
b101100000 (
#3550000
1!
#3551856
14
11
15
#3555000
0!
b101100001 (
#3560000
1!
#3562272
04
01
05
#3565000
0!
b101100010 (
#3570000
1!
#3572688
14
11
15
#3575000
0!
b101100011 (
#3580000
1!
#3583104
04
01
05
#3585000
0!
b101100100 (
#3590000
1!
#3593520
14
11
15
#3595000
0!
b101100101 (
#3600000
1!
#3603936
04
01
05
#3605000
0!
b101100110 (
#3610000
1!
#3614352
14
11
15
#3615000
0!
b101100111 (
#3620000
1!
#3624768
04
01
05
#3625000
0!
b101101000 (
#3630000
1!
#3635000
0!
b101101001 (
#3635184
14
11
15
#3640000
1!
#3645000
0!
b101101010 (
#3645600
04
01
05
#3650000
1!
#3655000
0!
b101101011 (
#3656016
14
11
15
#3660000
1!
#3665000
0!
b101101100 (
#3666432
04
01
05
#3670000
1!
#3675000
0!
b101101101 (
#3676848
14
11
15
#3680000
1!
#3685000
0!
b101101110 (
#3687264
04
01
05
#3690000
1!
#3695000
0!
b101101111 (
#3697680
14
11
15
#3700000
1!
#3705000
0!
b101110000 (
#3708096
04
01
05
#3710000
1!
#3715000
0!
b101110001 (
#3718512
14
11
15
#3720000
1!
#3725000
0!
b101110010 (
#3728928
04
01
05
#3730000
1!
#3735000
0!
b101110011 (
#3739344
14
11
15
#3740000
1!
#3745000
0!
b101110100 (
#3749760
04
01
05
#3750000
1!
#3755000
0!
b101110101 (
#3760000
1!
#3760176
14
11
15
#3765000
0!
b101110110 (
#3770000
1!
#3770592
04
01
05
#3775000
0!
b101110111 (
#3780000
1!
#3781008
14
11
15
#3785000
0!
b101111000 (
#3790000
1!
#3791424
04
01
05
#3795000
0!
b101111001 (
#3800000
1!
#3801840
14
11
15
#3805000
0!
b101111010 (
