fpga/radiant_project/lab02/source/impl_1/lab02_tb.vcd
$date
	Thu Sep  5 18:16:08 2024
$end
$version
	Questa Lattice OEM Edition 2024.2
$end
$timescale
	1ps
$end

$scope module lab02_tb $end
$var reg 1 ! clk $end
$var reg 1 " reset $end
$var reg 4 # switch1 [3:0] $end
$var reg 4 $ switch2 [3:0] $end
$var reg 5 % led [4:0] $end
$var reg 5 & led_expected [4:0] $end
$var reg 7 ' segment [6:0] $end
$var reg 7 ( seg1_expected [6:0] $end
$var reg 7 ) seg2_expected [6:0] $end
$var reg 1 * anode1 $end
$var reg 1 + anode2 $end
$var reg 254 , vectornum [253:0] $end
$var reg 254 - errors [253:0] $end

$scope module dut $end
$var wire 1 . reset $end
$var wire 1 / s1 [3] $end
$var wire 1 0 s1 [2] $end
$var wire 1 1 s1 [1] $end
$var wire 1 2 s1 [0] $end
$var wire 1 3 s2 [3] $end
$var wire 1 4 s2 [2] $end
$var wire 1 5 s2 [1] $end
$var wire 1 6 s2 [0] $end
$var reg 5 7 led [4:0] $end
$var reg 7 8 seg [6:0] $end
$var reg 1 9 anode1 $end
$var reg 1 : anode2 $end
$var reg 1 ; int_osc $end

$scope module hf_osc $end
$var wire 1 < CLKHFPU $end
$var wire 1 = CLKHFEN $end
$var wire 1 > CLKHF $end
$upscope $end

$scope module lab_runner $end
$var wire 1 ? clk $end
$var wire 1 . reset $end
$var wire 1 / s1 [3] $end
$var wire 1 0 s1 [2] $end
$var wire 1 1 s1 [1] $end
$var wire 1 2 s1 [0] $end
$var wire 1 3 s2 [3] $end
$var wire 1 4 s2 [2] $end
$var wire 1 5 s2 [1] $end
$var wire 1 6 s2 [0] $end
$var reg 5 @ led [4:0] $end
$var reg 7 A seg [6:0] $end
$var reg 1 B anode1 $end
$var reg 1 C anode2 $end
$var reg 5 D counter [4:0] $end
$var reg 1 E oscillate $end
$var reg 1 F state $end
$var reg 1 G nextstate $end

$scope module segments $end
$var wire 1 H state $end
$var wire 1 / s1 [3] $end
$var wire 1 0 s1 [2] $end
$var wire 1 1 s1 [1] $end
$var wire 1 2 s1 [0] $end
$var wire 1 3 s2 [3] $end
$var wire 1 4 s2 [2] $end
$var wire 1 5 s2 [1] $end
$var wire 1 6 s2 [0] $end
$var reg 7 I seg [6:0] $end
$var reg 1 J anode_display1 $end
$var reg 1 K anode_display2 $end
$var reg 4 L s [3:0] $end

$scope module segment $end
$var wire 1 M s [3] $end
$var wire 1 N s [2] $end
$var wire 1 O s [1] $end
$var wire 1 P s [0] $end
$var reg 7 Q seg [6:0] $end
$upscope $end
$upscope $end

$scope module leds $end
$var wire 1 / s1 [3] $end
$var wire 1 0 s1 [2] $end
$var wire 1 1 s1 [1] $end
$var wire 1 2 s1 [0] $end
$var wire 1 3 s2 [3] $end
$var wire 1 4 s2 [2] $end
$var wire 1 5 s2 [1] $end
$var wire 1 6 s2 [0] $end
$var reg 5 R led [4:0] $end
$upscope $end
$upscope $end
$upscope $end
$upscope $end
$enddefinitions $end
#0
$dumpvars
1!
1"
bx #
bx $
bx %
bx &
bx '
bx (
bx )
x*
x+
b0 ,
b0 -
bx 7
bx 8
x9
x:
0;
bx @
bx A
xB
xC
bx D
xE
xF
xG
bx I
xJ
xK
bx L
bx Q
bx R
x6
x5
x4
x3
x2
x1
x0
x/
1.
0?
1=
1<
0>
xH
xP
xO
xN
xM
$end
#1000
b0 &
b1000000 )
b1000000 (
b0 $
b0 #
02
01
00
0/
06
05
04
03
b0 R
b0 @
b0 7
b0 %
#5000
0!
#10000
1!
#10416
1>
1;
1?
#15000
0!
#20000
1!
#20832
0>
0;
0?
#25000
0!
#27000
0"
0.
#30000
1!
#31248
1>
1;
1?
b0 D
0F
0H
b0 L
0J
1K
0G
1C
0B
09
1:
1+
0*
0P
0O
0N
0M
b1000000 Q
b1000000 I
b1000000 A
b1000000 8
b1000000 '
#35000
0!
b1 ,
#40000
1!
#41000
b1 &
b1111001 )
b1 $
16
b1 R
b1 @
b1 7
b1 %
#41664
0>
0;
0?
#45000
0!
b10 ,
#50000
1!
#51000
b10 &
b100100 )
b10 $
06
15
b10 R
b10 @
b10 7
b10 %
#52080
1>
1;
1?
#55000
0!
b11 ,
#60000
1!
#61000
b11 &
b110000 )
b11 $
16
b11 R
b11 @
b11 7
b11 %
#62496
0>
0;
0?
#65000
0!
b100 ,
#70000
1!
#71000
b100 &
b11001 )
b100 $
06
05
14
b100 R
b100 @
b100 7
b100 %
#72912
1>
1;
1?
#75000
0!
b101 ,
#80000
1!
#81000
b101 &
b10010 )
b101 $
16
b101 R
b101 @
b101 7
b101 %
#83328
0>
0;
0?
#85000
0!
b110 ,
#90000
1!
#91000
b110 &
b10 )
b110 $
06
15
b110 R
b110 @
b110 7
b110 %
#93744
1>
1;
1?
#95000
0!
b111 ,
#100000
1!
#101000
b111 &
b1111000 )
b111 $
16
b111 R
b111 @
b111 7
b111 %
#104160
0>
0;
0?
#105000
0!
b1000 ,
#110000
1!
#111000
b1000 &
b0 )
b1000 $
06
05
04
13
b1000 R
b1000 @
b1000 7
b1000 %
#114576
1>
1;
1?
#115000
0!
b1001 ,
#120000
1!
#121000
b1001 &
b10000 )
b1001 $
16
b1001 R
b1001 @
b1001 7
b1001 %
#124992
0>
0;
0?
#125000
0!
b1010 ,
#130000
1!
#131000
b1010 &
b1000 )
b1010 $
06
15
b1010 R
b1010 @
b1010 7
b1010 %
#135000
0!
b1011 ,
#135408
1>
1;
1?
#140000
1!
#141000
b1011 &
b11 )
b1011 $
16
b1011 R
b1011 @
b1011 7
b1011 %
#145000
0!
b1100 ,
#145824
0>
0;
0?
#150000
1!
#151000
b1100 &
b1000110 )
b1100 $
06
05
14
b1100 R
b1100 @
b1100 7
b1100 %
#155000
0!
b1101 ,
#156240
1>
1;
1?
#160000
1!
#161000
b1101 &
b100001 )
b1101 $
16
b1101 R
b1101 @
b1101 7
b1101 %
#165000
0!
b1110 ,
#166656
0>
0;
0?
#170000
1!
#171000
b1110 &
b110 )
b1110 $
06
15
b1110 R
b1110 @
b1110 7
b1110 %
#175000
0!
b1111 ,
#177072
1>
1;
1?
#180000
1!
#181000
b1111 &
b1110 )
b1111 $
16
b1111 R
b1111 @
b1111 7
b1111 %
#185000
0!
b10000 ,
#187488
0>
0;
0?
#190000
1!
#191000
b1 &
b1000000 )
b1111001 (
b0 $
b1 #
12
06
05
04
03
b1 R
b1 @
b1 7
b1 %
b1 L
1P
b1111001 Q
b1111001 I
b1111001 A
b1111001 8
b1111001 '
#195000
0!
b10001 ,
#197904
1>
1;
1?
#200000
1!
#201000
b10 &
b1111001 )
b1 $
16
b10 R
b10 @
b10 7
b10 %
#205000
0!
b10010 ,
#208320
0>
0;
0?
#210000
1!
#211000
b11 &
b100100 )
b10 $
06
15
b11 R
b11 @
b11 7
b11 %
#215000
0!
b10011 ,
#218736
1>
1;
1?
#220000
1!
#221000
b100 &
b110000 )
b11 $
16
b100 R
b100 @
b100 7
b100 %
#225000
0!
b10100 ,
#229152
0>
0;
0?
#230000
1!
#231000
b101 &
b11001 )
b100 $
06
05
14
b101 R
b101 @
b101 7
b101 %
#235000
0!
b10101 ,
#239568
1>
1;
1?
#240000
1!
#241000
b110 &
b10010 )
b101 $
16
b110 R
b110 @
b110 7
b110 %
#245000
0!
b10110 ,
#249984
0>
0;
0?
#250000
1!
#251000
b111 &
b10 )
b110 $
06
15
b111 R
b111 @
b111 7
b111 %
#255000
0!
b10111 ,
#260000
1!
#260400
1>
1;
1?
#261000
b1000 &
b1111000 )
b111 $
16
b1000 R
b1000 @
b1000 7
b1000 %
#265000
0!
b11000 ,
#270000
1!
#270816
0>
0;
0?
#271000
b1001 &
b0 )
b1000 $
06
05
04
13
b1001 R
b1001 @
b1001 7
b1001 %
#275000
0!
b11001 ,
#280000
1!
#281000
b1010 &
b10000 )
b1001 $
16
b1010 R
b1010 @
b1010 7
b1010 %
#281232
1>
1;
1?
#285000
0!
b11010 ,
#290000
1!
#291000
b1011 &
b1000 )
b1010 $
06
15
b1011 R
b1011 @
b1011 7
b1011 %
#291648
0>
0;
0?
#295000
0!
b11011 ,
#300000
1!
#301000
b1100 &
b11 )
b1011 $
16
b1100 R
b1100 @
b1100 7
b1100 %
#302064
1>
1;
1?
#305000
0!
b11100 ,
#310000
1!
#311000
b1101 &
b1000110 )
b1100 $
06
05
14
b1101 R
b1101 @
b1101 7
b1101 %
#312480
0>
0;
0?
#315000
0!
b11101 ,
#320000
1!
#321000
b1110 &
b100001 )
b1101 $
16
b1110 R
b1110 @
b1110 7
b1110 %
#322896
1>
1;
1?
#325000
0!
b11110 ,
#330000
1!
#331000
b1111 &
b110 )
b1110 $
06
15
b1111 R
b1111 @
b1111 7
b1111 %
#333312
0>
0;
0?
#335000
0!
b11111 ,
#340000
1!
#341000
b10000 &
b1110 )
b1111 $
16
b10000 R
b10000 @
b10000 7
b10000 %
#343728
1>
1;
1?
#345000
0!
b100000 ,
#350000
1!
#351000
b10 &
b1000000 )
b100100 (
b0 $
b10 #
02
11
06
05
04
03
b10 R
b10 @
b10 7
b10 %
b10 L
0P
1O
b100100 Q
b100100 I
b100100 A
b100100 8
b100100 '
#354144
0>
0;
0?
#355000
0!
b100001 ,
#360000
1!
#361000
b11 &
b1111001 )
b1 $
16
b11 R
b11 @
b11 7
b11 %
#364560
1>
1;
1?
#365000
0!
b100010 ,
#370000
1!
#371000
b100 &
b100100 )
b10 $
06
15
b100 R
b100 @
b100 7
b100 %
#374976
0>
0;
0?
#375000
0!
b100011 ,
#380000
1!
#381000
b101 &
b110000 )
b11 $
16
b101 R
b101 @
b101 7
b101 %
#385000
0!
b100100 ,
#385392
1>
1;
1?
#390000
1!
#391000
b110 &
b11001 )
b100 $
06
05
14
b110 R
b110 @
b110 7
b110 %
#395000
0!
b100101 ,
#395808
0>
0;
0?
#400000
1!
#401000
b111 &
b10010 )
b101 $
16
b111 R
b111 @
b111 7
b111 %
#405000
0!
b100110 ,
#406224
1>
1;
1?
#410000
1!
#411000
b1000 &
b10 )
b110 $
06
15
b1000 R
b1000 @
b1000 7
b1000 %
#415000
0!
b100111 ,
#416640
0>
0;
0?
#420000
1!
#421000
b1001 &
b1111000 )
b111 $
16
b1001 R
b1001 @
b1001 7
b1001 %
#425000
0!
b101000 ,
#427056
1>
1;
1?
#430000
1!
#431000
b1010 &
b0 )
b1000 $
06
05
04
13
b1010 R
b1010 @
b1010 7
b1010 %
#435000
0!
b101001 ,
#437472
0>
0;
0?
#440000
1!
#441000
b1011 &
b10000 )
b1001 $
16
b1011 R
b1011 @
b1011 7
b1011 %
#445000
0!
b101010 ,
#447888
1>
1;
1?
#450000
1!
#451000
b1100 &
b1000 )
b1010 $
06
15
b1100 R
b1100 @
b1100 7
b1100 %
#455000
0!
b101011 ,
#458304
0>
0;
0?
#460000
1!
#461000
b1101 &
b11 )
b1011 $
16
b1101 R
b1101 @
b1101 7
b1101 %
#465000
0!
b101100 ,
#468720
1>
1;
1?
#470000
1!
#471000
b1110 &
b1000110 )
b1100 $
06
05
14
b1110 R
b1110 @
b1110 7
b1110 %
#475000
0!
b101101 ,
#479136
0>
0;
0?
#480000
1!
#481000
b1111 &
b100001 )
b1101 $
16
b1111 R
b1111 @
b1111 7
b1111 %
#485000
0!
b101110 ,
#489552
1>
1;
1?
#490000
1!
#491000
b10000 &
b110 )
b1110 $
06
15
b10000 R
b10000 @
b10000 7
b10000 %
#495000
0!
b101111 ,
#499968
0>
0;
0?
#500000
1!
#501000
b10001 &
b1110 )
b1111 $
16
b10001 R
b10001 @
b10001 7
b10001 %
#505000
0!
b110000 ,
#510000
1!
#510384
1>
1;
1?
#511000
b11 &
b1000000 )
b110000 (
b0 $
b11 #
12
06
05
04
03
b11 R
b11 @
b11 7
b11 %
b11 L
1P
b110000 Q
b110000 I
b110000 A
b110000 8
b110000 '
#515000
0!
b110001 ,
#520000
1!
#520800
0>
0;
0?
#521000
b100 &
b1111001 )
b1 $
16
b100 R
b100 @
b100 7
b100 %
#525000
0!
b110010 ,
#530000
1!
#531000
b101 &
b100100 )
b10 $
06
15
b101 R
b101 @
b101 7
b101 %
#531216
1>
1;
1?
#535000
0!
b110011 ,
#540000
1!
#541000
b110 &
b110000 )
b11 $
16
b110 R
b110 @
b110 7
b110 %
#541632
0>
0;
0?
#545000
0!
b110100 ,
#550000
1!
#551000
b111 &
b11001 )
b100 $
06
05
14
b111 R
b111 @
b111 7
b111 %
#552048
1>
1;
1?
#555000
0!
b110101 ,
#560000
1!
#561000
b1000 &
b10010 )
b101 $
16
b1000 R
b1000 @
b1000 7
b1000 %
#562464
0>
0;
0?
#565000
0!
b110110 ,
#570000
1!
#571000
b1001 &
b10 )
b110 $
06
15
b1001 R
b1001 @
b1001 7
b1001 %
#572880
1>
1;
1?
#575000
0!
b110111 ,
#580000
1!
#581000
b1010 &
b1111000 )
b111 $
16
b1010 R
b1010 @
b1010 7
b1010 %
#583296
0>
0;
0?
#585000
0!
b111000 ,
#590000
1!
#591000
b1011 &
b0 )
b1000 $
06
05
04
13
b1011 R
b1011 @
b1011 7
b1011 %
#593712
1>
1;
1?
#595000
0!
b111001 ,
#600000
1!
#601000
b1100 &
b10000 )
b1001 $
16
b1100 R
b1100 @
b1100 7
b1100 %
#604128
0>
0;
0?
#605000
0!
b111010 ,
#610000
1!
#611000
b1101 &
b1000 )
b1010 $
06
15
b1101 R
b1101 @
b1101 7
b1101 %
#614544
1>
1;
1?
#615000
0!
b111011 ,
#620000
1!
#621000
b1110 &
b11 )
b1011 $
16
b1110 R
b1110 @
b1110 7
b1110 %
#624960
0>
0;
0?
#625000
0!
b111100 ,
#630000
1!
#631000
b1111 &
b1000110 )
b1100 $
06
05
14
b1111 R
b1111 @
b1111 7
b1111 %
#635000
0!
b111101 ,
#635376
1>
1;
1?
#640000
1!
#641000
b10000 &
b100001 )
b1101 $
16
b10000 R
b10000 @
b10000 7
b10000 %
#645000
0!
b111110 ,
#645792
0>
0;
0?
#650000
1!
#651000
b10001 &
b110 )
b1110 $
06
15
b10001 R
b10001 @
b10001 7
b10001 %
#655000
0!
b111111 ,
#656208
1>
1;
1?
#660000
1!
#661000
b10010 &
b1110 )
b1111 $
16
b10010 R
b10010 @
b10010 7
b10010 %
#665000
0!
b1000000 ,
#666624
0>
0;
0?
#670000
1!
#671000
b100 &
b1000000 )
b11001 (
b0 $
b100 #
02
01
10
06
05
04
03
b100 R
b100 @
b100 7
b100 %
b100 L
0P
0O
1N
b11001 Q
b11001 I
b11001 A
b11001 8
b11001 '
#675000
0!
b1000001 ,
#677040
1>
1;
1?
#680000
1!
#681000
b101 &
b1111001 )
b1 $
16
b101 R
b101 @
b101 7
b101 %
#685000
0!
b1000010 ,
#687456
0>
0;
0?
#690000
1!
#691000
b110 &
b100100 )
b10 $
06
15
b110 R
b110 @
b110 7
b110 %
#695000
0!
b1000011 ,
#697872
1>
1;
1?
#700000
1!
#701000
b111 &
b110000 )
b11 $
16
b111 R
b111 @
b111 7
b111 %
#705000
0!
b1000100 ,
#708288
0>
0;
0?
#710000
1!
#711000
b1000 &
b11001 )
b100 $
06
05
14
b1000 R
b1000 @
b1000 7
b1000 %
#715000
0!
b1000101 ,
#718704
1>
1;
1?
#720000
1!
#721000
b1001 &
b10010 )
b101 $
16
b1001 R
b1001 @
b1001 7
b1001 %
#725000
0!
b1000110 ,
#729120
0>
0;
0?
#730000
1!
#731000
b1010 &
b10 )
b110 $
06
15
b1010 R
b1010 @
b1010 7
b1010 %
#735000
0!
b1000111 ,
#739536
1>
1;
1?
#740000
1!
#741000
b1011 &
b1111000 )
b111 $
16
b1011 R
b1011 @
b1011 7
b1011 %
#745000
0!
b1001000 ,
#749952
0>
0;
0?
#750000
1!
#751000
b1100 &
b0 )
b1000 $
06
05
04
13
b1100 R
b1100 @
b1100 7
b1100 %
#755000
0!
b1001001 ,
#760000
1!
#760368
1>
1;
1?
#761000
b1101 &
b10000 )
b1001 $
16
b1101 R
b1101 @
b1101 7
b1101 %
#765000
0!
b1001010 ,
#770000
1!
#770784
0>
0;
0?
#771000
b1110 &
b1000 )
b1010 $
06
15
b1110 R
b1110 @
b1110 7
b1110 %
#775000
0!
b1001011 ,
#780000
1!
#781000
b1111 &
b11 )
b1011 $
16
b1111 R
b1111 @
b1111 7
b1111 %
#781200
1>
1;
1?
#785000
0!
b1001100 ,
#790000
1!
#791000
b10000 &
b1000110 )
b1100 $
06
05
14
b10000 R
b10000 @
b10000 7
b10000 %
#791616
0>
0;
0?
#795000
0!
b1001101 ,
#800000
1!
#801000
b10001 &
b100001 )
b1101 $
16
b10001 R
b10001 @
b10001 7
b10001 %
#802032
1>
1;
1?
#805000
0!
b1001110 ,
#810000
1!
#811000
b10010 &
b110 )
b1110 $
06
15
b10010 R
b10010 @
b10010 7
b10010 %
#812448
0>
0;
0?
#815000
0!
b1001111 ,
#820000
1!
#821000
b10011 &
b1110 )
b1111 $
16
b10011 R
b10011 @
b10011 7
b10011 %
#822864
1>
1;
1?
#825000
0!
b1010000 ,
#830000
1!
#831000
b101 &
b1000000 )
b10010 (
b0 $
b101 #
12
06
05
04
03
b101 R
b101 @
b101 7
b101 %
b101 L
1P
b10010 Q
b10010 I
b10010 A
b10010 8
b10010 '
#833280
0>
0;
0?
#835000
0!
b1010001 ,
#840000
1!
#841000
b110 &
b1111001 )
b1 $
16
b110 R
b110 @
b110 7
b110 %
#843696
1>
1;
1?
#845000
0!
b1010010 ,
#850000
1!
#851000
b111 &
b100100 )
b10 $
06
15
b111 R
b111 @
b111 7
b111 %
#854112
0>
0;
0?
#855000
0!
b1010011 ,
#860000
1!
#861000
b1000 &
b110000 )
b11 $
16
b1000 R
b1000 @
b1000 7
b1000 %
#864528
1>
1;
1?
#865000
0!
b1010100 ,
#870000
1!
#871000
b1001 &
b11001 )
b100 $
06
05
14
b1001 R
b1001 @
b1001 7
b1001 %
#874944
0>
0;
0?
#875000
0!
b1010101 ,
#880000
1!
#881000
b1010 &
b10010 )
b101 $
16
b1010 R
b1010 @
b1010 7
b1010 %
#885000
0!
b1010110 ,
#885360
1>
1;
1?
#890000
1!
#891000
b1011 &
b10 )
b110 $
06
15
b1011 R
b1011 @
b1011 7
b1011 %
#895000
0!
b1010111 ,
#895776
0>
0;
0?
#900000
1!
#901000
b1100 &
b1111000 )
b111 $
16
b1100 R
b1100 @
b1100 7
b1100 %
#905000
0!
b1011000 ,
#906192
1>
1;
1?
#910000
1!
#911000
b1101 &
b0 )
b1000 $
06
05
04
13
b1101 R
b1101 @
b1101 7
b1101 %
#915000
0!
b1011001 ,
#916608
0>
0;
0?
#920000
1!
#921000
b1110 &
b10000 )
b1001 $
16
b1110 R
b1110 @
b1110 7
b1110 %
#925000
0!
b1011010 ,
#927024
1>
1;
1?
#930000
1!
#931000
b1111 &
b1000 )
b1010 $
06
15
b1111 R
b1111 @
b1111 7
b1111 %
#935000
0!
b1011011 ,
#937440
0>
0;
0?
#940000
1!
#941000
b10000 &
b11 )
b1011 $
16
b10000 R
b10000 @
b10000 7
b10000 %
#945000
0!
b1011100 ,
#947856
1>
1;
1?
#950000
1!
#951000
b10001 &
b1000110 )
b1100 $
06
05
14
b10001 R
b10001 @
b10001 7
b10001 %
#955000
0!
b1011101 ,
#958272
0>
0;
0?
#960000
1!
#961000
b10010 &
b100001 )
b1101 $
16
b10010 R
b10010 @
b10010 7
b10010 %
#965000
0!
b1011110 ,
#968688
1>
1;
1?
#970000
1!
#971000
b10011 &
b110 )
b1110 $
06
15
b10011 R
b10011 @
b10011 7
b10011 %
#975000
0!
b1011111 ,
#979104
0>
0;
0?
#980000
1!
#981000
b10100 &
b1110 )
b1111 $
16
b10100 R
b10100 @
b10100 7
b10100 %
#985000
0!
b1100000 ,
#989520
1>
1;
1?
#990000
1!
#991000
b110 &
b1000000 )
b10 (
b0 $
b110 #
02
11
06
05
04
03
b110 R
b110 @
b110 7
b110 %
b110 L
0P
1O
b10 Q
b10 I
b10 A
b10 8
b10 '
#995000
0!
b1100001 ,
#999936
0>
0;
0?
#1000000
1!
#1001000
b111 &
b1111001 )
b1 $
16
b111 R
b111 @
b111 7
b111 %
#1005000
0!
b1100010 ,
#1010000
1!
#1010352
1>
1;
1?
#1011000
b1000 &
b100100 )
b10 $
06
15
b1000 R
b1000 @
b1000 7
b1000 %
#1015000
0!
b1100011 ,
#1020000
1!
#1020768
0>
0;
0?
#1021000
b1001 &
b110000 )
b11 $
16
b1001 R
b1001 @
b1001 7
b1001 %
#1025000
0!
b1100100 ,
#1030000
1!
#1031000
b1010 &
b11001 )
b100 $
06
05
14
b1010 R
b1010 @
b1010 7
b1010 %
#1031184
1>
1;
1?
#1035000
0!
b1100101 ,
#1040000
1!
#1041000
b1011 &
b10010 )
b101 $
16
b1011 R
b1011 @
b1011 7
b1011 %
#1041600
0>
0;
0?
#1045000
0!
b1100110 ,
#1050000
1!
#1051000
b1100 &
b10 )
b110 $
06
15
b1100 R
b1100 @
b1100 7
b1100 %
#1052016
1>
1;
1?
#1055000
0!
b1100111 ,
#1060000
1!
#1061000
b1101 &
b1111000 )
b111 $
16
b1101 R
b1101 @
b1101 7
b1101 %
#1062432
0>
0;
0?
#1065000
0!
b1101000 ,
#1070000
1!
#1071000
b1110 &
b0 )
b1000 $
06
05
04
13
b1110 R
b1110 @
b1110 7
b1110 %
#1072848
1>
1;
1?
#1075000
0!
b1101001 ,
#1080000
1!
#1081000
b1111 &
b10000 )
b1001 $
16
b1111 R
b1111 @
b1111 7
b1111 %
#1083264
0>
0;
0?
#1085000
0!
b1101010 ,
#1090000
1!
#1091000
b10000 &
b1000 )
b1010 $
06
15
b10000 R
b10000 @
b10000 7
b10000 %
#1093680
1>
1;
1?
#1095000
0!
b1101011 ,
#1100000
1!
#1101000
b10001 &
b11 )
b1011 $
16
b10001 R
b10001 @
b10001 7
b10001 %
#1104096
0>
0;
0?
#1105000
0!
b1101100 ,
#1110000
1!
#1111000
b10010 &
b1000110 )
b1100 $
06
05
14
b10010 R
b10010 @
b10010 7
b10010 %
#1114512
1>
1;
1?
#1115000
0!
b1101101 ,
#1120000
1!
#1121000
b10011 &
b100001 )
b1101 $
16
b10011 R
b10011 @
b10011 7
b10011 %
#1124928
0>
0;
0?
#1125000
0!
b1101110 ,
#1130000
1!
#1131000
b10100 &
b110 )
b1110 $
06
15
b10100 R
b10100 @
b10100 7
b10100 %
#1135000
0!
b1101111 ,
#1135344
1>
1;
1?
#1140000
1!
#1141000
b10101 &
b1110 )
b1111 $
16
b10101 R
b10101 @
b10101 7
b10101 %
#1145000
0!
b1110000 ,
#1145760
0>
0;
0?
#1150000
1!
#1151000
b111 &
b1000000 )
b1111000 (
b0 $
b111 #
12
06
05
04
03
b111 R
b111 @
b111 7
b111 %
b111 L
1P
b1111000 Q
b1111000 I
b1111000 A
b1111000 8
b1111000 '
#1155000
0!
b1110001 ,
#1156176
1>
1;
1?
#1160000
1!
#1161000
b1000 &
b1111001 )
b1 $
16
b1000 R
b1000 @
b1000 7
b1000 %
#1165000
0!
b1110010 ,
#1166592
0>
0;
0?
#1170000
1!
#1171000
b1001 &
b100100 )
b10 $
06
15
b1001 R
b1001 @
b1001 7
b1001 %
#1175000
0!
b1110011 ,
#1177008
1>
1;
1?
#1180000
1!
#1181000
b1010 &
b110000 )
b11 $
16
b1010 R
b1010 @
b1010 7
b1010 %
#1185000
0!
b1110100 ,
#1187424
0>
0;
0?
#1190000
1!
#1191000
b1011 &
b11001 )
b100 $
06
05
14
b1011 R
b1011 @
b1011 7
b1011 %
#1195000
0!
b1110101 ,
#1197840
1>
1;
1?
#1200000
1!
#1201000
b1100 &
b10010 )
b101 $
16
b1100 R
b1100 @
b1100 7
b1100 %
#1205000
0!
b1110110 ,
#1208256
0>
0;
0?
#1210000
1!
#1211000
b1101 &
b10 )
b110 $
06
15
b1101 R
b1101 @
b1101 7
b1101 %
#1215000
0!
b1110111 ,
#1218672
1>
1;
1?
#1220000
1!
#1221000
b1110 &
b1111000 )
b111 $
16
b1110 R
b1110 @
b1110 7
b1110 %
#1225000
0!
b1111000 ,
#1229088
0>
0;
0?
#1230000
1!
#1231000
b1111 &
b0 )
b1000 $
06
05
04
13
b1111 R
b1111 @
b1111 7
b1111 %
#1235000
0!
b1111001 ,
#1239504
1>
1;
1?
#1240000
1!
#1241000
b10000 &
b10000 )
b1001 $
16
b10000 R
b10000 @
b10000 7
b10000 %
#1245000
0!
b1111010 ,
#1249920
0>
0;
0?
#1250000
1!
#1251000
b10001 &
b1000 )
b1010 $
06
15
b10001 R
b10001 @
b10001 7
b10001 %
#1255000
0!
b1111011 ,
#1260000
1!
#1260336
1>
1;
1?
#1261000
b10010 &
b11 )
b1011 $
16
b10010 R
b10010 @
b10010 7
b10010 %
#1265000
0!
b1111100 ,
#1270000
1!
#1270752
0>
0;
0?
#1271000
b10011 &
b1000110 )
b1100 $
06
05
14
b10011 R
b10011 @
b10011 7
b10011 %
#1275000
0!
b1111101 ,
#1280000
1!
#1281000
b10100 &
b100001 )
b1101 $
16
b10100 R
b10100 @
b10100 7
b10100 %
#1281168
1>
1;
1?
#1285000
0!
b1111110 ,
#1290000
1!
#1291000
b10101 &
b110 )
b1110 $
06
15
b10101 R
b10101 @
b10101 7
b10101 %
#1291584
0>
0;
0?
#1295000
0!
b1111111 ,
#1300000
1!
#1301000
b10110 &
b1110 )
b1111 $
16
b10110 R
b10110 @
b10110 7
b10110 %
#1302000
1>
1;
1?
#1305000
0!
b10000000 ,
#1310000
1!
#1311000
b1000 &
b1000000 )
b0 (
b0 $
b1000 #
02
01
00
1/
06
05
04
03
b1000 R
b1000 @
b1000 7
b1000 %
b1000 L
0P
0O
0N
1M
b0 Q
b0 I
b0 A
b0 8
b0 '
#1312416
0>
0;
0?
#1315000
0!
b10000001 ,
#1320000
1!
#1321000
b1001 &
b1111001 )
b1 $
16
b1001 R
b1001 @
b1001 7
b1001 %
#1322832
1>
1;
1?
#1325000
0!
b10000010 ,
#1330000
1!
#1331000
b1010 &
b100100 )
b10 $
06
15
b1010 R
b1010 @
b1010 7
b1010 %
#1333248
0>
0;
0?
#1335000
0!
b10000011 ,
#1340000
1!
#1341000
b1011 &
b110000 )
b11 $
16
b1011 R
b1011 @
b1011 7
b1011 %
#1343664
1>
1;
1?
#1345000
0!
b10000100 ,
#1350000
1!
#1351000
b1100 &
b11001 )
b100 $
06
05
14
b1100 R
b1100 @
b1100 7
b1100 %
#1354080
0>
0;
0?
#1355000
0!
b10000101 ,
#1360000
1!
#1361000
b1101 &
b10010 )
b101 $
16
b1101 R
b1101 @
b1101 7
b1101 %
#1364496
1>
1;
1?
#1365000
0!
b10000110 ,
#1370000
1!
#1371000
b1110 &
b10 )
b110 $
06
15
b1110 R
b1110 @
b1110 7
b1110 %
#1374912
0>
0;
0?
#1375000
0!
b10000111 ,
#1380000
1!
#1381000
b1111 &
b1111000 )
b111 $
16
b1111 R
b1111 @
b1111 7
b1111 %
#1385000
0!
b10001000 ,
#1385328
1>
1;
1?
#1390000
1!
#1391000
b10000 &
b0 )
b1000 $
06
05
04
13
b10000 R
b10000 @
b10000 7
b10000 %
#1395000
0!
b10001001 ,
#1395744
0>
0;
0?
#1400000
1!
#1401000
b10001 &
b10000 )
b1001 $
16
b10001 R
b10001 @
b10001 7
b10001 %
#1405000
0!
b10001010 ,
#1406160
1>
1;
1?
#1410000
1!
#1411000
b10010 &
b1000 )
b1010 $
06
15
b10010 R
b10010 @
b10010 7
b10010 %
#1415000
0!
b10001011 ,
#1416576
0>
0;
0?
#1420000
1!
#1421000
b10011 &
b11 )
b1011 $
16
b10011 R
b10011 @
b10011 7
b10011 %
#1425000
0!
b10001100 ,
#1426992
1>
1;
1?
#1430000
1!
#1431000
b10100 &
b1000110 )
b1100 $
06
05
14
b10100 R
b10100 @
b10100 7
b10100 %
#1435000
0!
b10001101 ,
#1437408
0>
0;
0?
#1440000
1!
#1441000
b10101 &
b100001 )
b1101 $
16
b10101 R
b10101 @
b10101 7
b10101 %
#1445000
0!
b10001110 ,
#1447824
1>
1;
1?
#1450000
1!
#1451000
b10110 &
b110 )
b1110 $
06
15
b10110 R
b10110 @
b10110 7
b10110 %
#1455000
0!
b10001111 ,
#1458240
0>
0;
0?
#1460000
1!
#1461000
b10111 &
b1110 )
b1111 $
16
b10111 R
b10111 @
b10111 7
b10111 %
#1465000
0!
b10010000 ,
#1468656
1>
1;
1?
#1470000
1!
#1471000
b1001 &
b1000000 )
b10000 (
b0 $
b1001 #
12
06
05
04
03
b1001 R
b1001 @
b1001 7
b1001 %
b1001 L
1P
b10000 Q
b10000 I
b10000 A
b10000 8
b10000 '
#1475000
0!
b10010001 ,
#1479072
0>
0;
0?
#1480000
1!
#1481000
b1010 &
b1111001 )
b1 $
16
b1010 R
b1010 @
b1010 7
b1010 %
#1485000
0!
b10010010 ,
#1489488
1>
1;
1?
#1490000
1!
#1491000
b1011 &
b100100 )
b10 $
06
15
b1011 R
b1011 @
b1011 7
b1011 %
#1495000
0!
b10010011 ,
#1499904
0>
0;
0?
#1500000
1!
#1501000
b1100 &
b110000 )
b11 $
16
b1100 R
b1100 @
b1100 7
b1100 %
#1505000
0!
b10010100 ,
#1510000
1!
#1510320
1>
1;
1?
#1511000
b1101 &
b11001 )
b100 $
06
05
14
b1101 R
b1101 @
b1101 7
b1101 %
#1515000
0!
b10010101 ,
#1520000
1!
#1520736
0>
0;
0?
#1521000
b1110 &
b10010 )
b101 $
16
b1110 R
b1110 @
b1110 7
b1110 %
#1525000
0!
b10010110 ,
#1530000
1!
#1531000
b1111 &
b10 )
b110 $
06
15
b1111 R
b1111 @
b1111 7
b1111 %
#1531152
1>
1;
1?
